{
  "src_folders": ["./tests"],
  "output_folder": "./reports",

  "custom_commands_path": ["node_modules/nightwatch-accessibility/commands"],
  "custom_assertions_path": [
    "node_modules/nightwatch-accessibility/assertions"
  ],

  "test_settings": {
    "default": {
      "launch_url": "http://ondemand.saucelabs.com:80",
      "selenium_host": "ondemand.saucelabs.com",
      "selenium_port": 4444,
      "username": "${USERNAME}",
      "access_key": "${ACCESS}",
      "use_ssl": false,
      "silent": true,
      "output": true,
      "screenshots": {
        "enabled": false,
        "on_failure": true,
        "path": "./screenshots"
      },
      "desiredCapabilities": {
        "name": "saucelabs",
        "browserName": "chrome",
        "javascriptEnabled": "true",
        "acceptSslCerts": true
      }
    },
    "selenium": {
      "start_process": false,
      "log_path": "./reports"
    }
  }
}
